--
-- PostgreSQL database dump
--

-- Dumped from database version 10.14 (Ubuntu 10.14-0ubuntu0.18.04.1)
-- Dumped by pg_dump version 10.14 (Ubuntu 10.14-0ubuntu0.18.04.1)

SET statement_timeout = 0;
SET lock_timeout = 0;
SET idle_in_transaction_session_timeout = 0;
SET client_encoding = 'UTF8';
SET standard_conforming_strings = on;
SELECT pg_catalog.set_config('search_path', '', false);
SET check_function_bodies = false;
SET xmloption = content;
SET client_min_messages = warning;
SET row_security = off;

--
-- Name: plpgsql; Type: EXTENSION; Schema: -; Owner: 
--

CREATE EXTENSION IF NOT EXISTS plpgsql WITH SCHEMA pg_catalog;


--
-- Name: EXTENSION plpgsql; Type: COMMENT; Schema: -; Owner: 
--

COMMENT ON EXTENSION plpgsql IS 'PL/pgSQL procedural language';


SET default_tablespace = '';

SET default_with_oids = false;

--
-- Name: address; Type: TABLE; Schema: public; Owner: postgres
--

CREATE TABLE public.address (
    id integer NOT NULL,
    name character varying(50),
    city character varying(50)
);


ALTER TABLE public.address OWNER TO postgres;

--
-- Name: phone; Type: TABLE; Schema: public; Owner: postgres
--

CREATE TABLE public.phone (
    id integer NOT NULL,
    name character varying(50),
    number integer
);


ALTER TABLE public.phone OWNER TO postgres;

--
-- Name: type; Type: TABLE; Schema: public; Owner: postgres
--

CREATE TABLE public.type (
    id integer NOT NULL,
    iri character varying(50),
    type character varying(50)
);


ALTER TABLE public.type OWNER TO postgres;

--
-- Data for Name: address; Type: TABLE DATA; Schema: public; Owner: postgres
--

COPY public.address (id, name, city) FROM stdin;
1	Maxime	Orsay
2	Ioana	Palaiseau
3	François	Lannion
4	Marie-Laure	Montpellier
\.


--
-- Data for Name: phone; Type: TABLE DATA; Schema: public; Owner: postgres
--

COPY public.phone (id, name, number) FROM stdin;
1	Maxime	245470000
\.


--
-- Data for Name: type; Type: TABLE DATA; Schema: public; Owner: postgres
--

COPY public.type (id, iri, type) FROM stdin;
1	Ioana	Person
2	François	Person
3	Marie-Laure	Person
4	contact	Property
5	Place	Class
\.


--
-- PostgreSQL database dump complete
--

